
<svg width="128px" height="128px" viewBox="-576 -587 128 128" version="1.1" xmlns="http://www.w3.org/2000/svg" xmlns:xlink="http://www.w3.org/1999/xlink">
    <!-- Generator: Sketch 42 (36781) - http://www.bohemiancoding.com/sketch -->
    <desc>Created with Sketch.</desc>
    <defs></defs>
    <g id="Group" stroke="none" stroke-width="1" fill="none" fill-rule="evenodd" transform="translate(-576.000000, -587.000000)">
        <g id="Facebook-Kopie" fill-rule="nonzero" fill="#262626">
            <g id="Facebook">
                <circle id="facebook-back" cx="64" cy="64" r="64"></circle>
            </g>
        </g>
        <g id="bit-bucket-logo" transform="translate(29.000000, 25.000000)" fill-rule="nonzero" fill="#FFFFFF">
            <path d="M67.2671565,8.65925357 C66.7631821,7.95795 66.1474894,7.36737857 65.4573176,6.84324643 C63.942912,5.67440714 62.2373437,4.840225 60.4672269,4.13153929 C56.7035566,2.62804286 52.7785151,1.74218571 48.7963731,1.10732143 C43.9353793,0.337117857 39.0346633,0.0295285714 33.8856842,0 C29.2828841,0.0393714286 24.4591298,0.327275 19.672615,1.06795 C16.2738915,1.59700357 12.9173728,2.31307143 9.65519414,3.40808929 C7.49778678,4.13892143 5.40989311,5.00509286 3.50571423,6.27236071 C2.59955349,6.872775 1.76538908,7.55439286 1.08266523,8.41072143 C0.228639757,9.48851429 -0.136307174,10.6893429 0.0846470903,12.0501179 C0.514142457,14.7372179 0.911363606,17.4267786 1.3582374,20.101575 C2.01365229,24.0657857 2.69141088,28.0299964 3.3716521,31.9819036 C4.13133754,36.3792 4.91088405,40.7740357 5.65070844,45.1713321 C5.82449269,46.1949893 6.26143595,47.0636214 6.95657296,47.8042964 C7.40096412,48.2792143 7.87514687,48.7319857 8.38160383,49.1404643 C10.1939253,50.5922857 12.2594753,51.6257857 14.4193653,52.4722714 C19.5882055,54.5146643 24.9928957,55.4374321 30.519235,55.7401 C34.5311686,55.9615643 38.5381369,55.8213036 42.5302095,55.2799464 C45.9289329,54.8247143 49.25566,54.1012643 52.4880471,52.9471893 C54.8837872,52.0884 57.1827046,51.0401357 59.2532198,49.5464821 C60.1345542,48.9066964 60.9488576,48.2004714 61.5993072,47.3293786 C62.0486636,46.7437286 62.35651,46.0891786 62.478159,45.3485036 C63.463764,39.5879714 64.4866084,33.8348214 65.4473871,28.0718286 C66.3460999,22.7271571 67.1877123,17.3775643 68.0740119,12.0328929 C68.282553,10.7976143 67.9970503,9.68291071 67.2671565,8.65925357 Z M34.0296769,48.3284286 C28.0713596,48.3087429 23.2525706,43.4783607 23.2724316,37.5431179 C23.2873274,31.6127964 28.1334254,26.8463929 34.1190516,26.8685393 C40.1394347,26.888225 44.9408453,31.694 44.9185016,37.6636929 C44.8911927,43.5644857 40.0053725,48.3481143 34.0296769,48.3284286 Z M55.6335421,10.8123786 C55.3256957,11.1544179 54.9533009,11.4570857 54.5511145,11.6908536 C53.43393,12.350325 52.1901313,12.6972857 50.9413673,13.0221 C48.5779014,13.6200536 46.1672656,13.9645536 43.7516645,14.2155464 C40.5714127,14.5502036 37.3837129,14.6658571 34.3400059,14.6781607 C30.6408839,14.658475 27.1056157,14.5108321 23.5852433,14.0925107 C20.9437227,13.7750786 18.3121325,13.3764429 15.7748825,12.5348786 C15.0226449,12.2789643 14.2902684,11.95415 13.5827182,11.5973464 C13.2202539,11.420175 12.8999944,11.1421143 12.6244222,10.8492893 C12.1353437,10.3202357 12.1378263,9.74196786 12.6368354,9.21783571 C12.9273034,8.91024643 13.2823198,8.64695 13.6472667,8.44025 C14.6999027,7.83491429 15.8568093,7.48303214 17.0211638,7.18036429 C19.4615912,6.55042143 21.9491887,6.19115714 24.4541646,5.92786071 C28.5554729,5.50953929 32.6667118,5.38404286 36.7853986,5.50461786 C40.56893,5.61535 44.3450136,5.89341071 48.081375,6.56518571 C49.8341133,6.87769643 51.5744385,7.23942143 53.2328368,7.906275 C53.818738,8.14250357 54.3822955,8.44025 54.9284746,8.75768214 C55.1990815,8.91516786 55.444862,9.16123929 55.6434726,9.41223214 C55.9960064,9.86008214 56.0109022,10.3891357 55.6335421,10.8123786 Z M59.764642,56.0083179 C59.7869857,56.2248607 59.7547115,56.4586286 59.7125068,56.6751714 C58.9553039,60.6221571 58.1881706,64.5617607 57.4508288,68.5136679 C57.200083,69.8399929 56.5968034,70.949775 55.6534031,71.9020714 C54.6057324,72.9651 53.3743468,73.7525286 52.0585518,74.4193821 C49.6280549,75.6448179 47.0486,76.4150214 44.3996315,76.9563786 C40.981047,77.6601429 37.5202577,77.9751143 35.554013,77.9578893 C29.5708695,77.943125 25.16668,77.4706679 20.8642784,76.2403107 C18.8732074,75.6743464 16.9491675,74.9385929 15.1542244,73.89525 C14.2133068,73.3489714 13.3369377,72.7190286 12.5673217,71.9537464 C11.6040604,70.9891464 10.9784371,69.8719821 10.7276912,68.5185893 C9.99283212,64.5716036 9.21576824,60.6270786 8.4560828,56.6825536 C8.41636068,56.4832357 8.40394752,56.2814571 8.40891279,56.0796786 C8.4560828,55.1101571 9.32748669,54.6106321 10.2063385,55.0387964 C10.2957132,55.0904714 10.385088,55.1396857 10.4670149,55.1938214 C13.381625,57.2928107 16.6338732,58.6954179 20.0450098,59.7609071 C23.1780916,60.7451929 26.3906177,61.338225 29.6602442,61.6261286 C33.4338451,61.9657071 37.1851024,61.8820429 40.9313943,61.35545 C45.8966587,60.66645 50.6384861,59.2613821 55.0501235,56.859725 C55.9289753,56.3823464 56.7532092,55.8016179 57.5948215,55.2701036 C57.7338489,55.1839786 57.8629458,55.0830893 58.0094211,55.0141893 C58.853516,54.6426214 59.6827152,55.1076964 59.764642,56.0083179 Z M39.5088461,37.6095571 C39.4964329,40.5697964 37.046075,42.9837571 34.0545032,42.9689929 C31.0629314,42.95915 28.6473303,40.5402679 28.6622261,37.5652643 C28.6721566,34.5828786 31.0952056,32.1984464 34.1041558,32.2132107 C37.1056581,32.227975 39.516294,34.6296321 39.5088461,37.6095571 Z" id="Shape"></path>
        </g>
    </g>
</svg>